{
	"info": {
		"_postman_id": "f7442e20-078f-4e91-9122-d419c7eb38f2",
		"name": "delete_reference",
		"schema": "https://schema.getpostman.com/json/collection/v2.0.0/collection.json",
		"_exporter_id": "26632037"
	},
	"item": [
		{
			"name": "delete_tc1",
			"request": {
				"method": "DELETE",
				"header": [],
				"url": "https://reqres.in/api/users/2"
			},
			"response": []
		},
		{
			"name": "delete_tc1 Copy",
			"request": {
				"method": "DELETE",
				"header": [],
				"url": "{{Delete_url}}"
			},
			"response": []
		}
	]
}